…
``` r
library(tidyr)
gathered <- gather(data = df,
                   key = measurement, 
                   value = data, Measurement_1:Measurement_3,
                   na.rm = FALSE,
                   convert = FALSE,
                   factor_key = FALSE)        #gather into measurement column
by_id <- group_by(gathered, ID)               #group by subect ID
report <- summarize(by_id, mean(data))        #average of measurements by_id
report                                        #print results
```

    ## # A tibble: 40 x 2
    ##       ID mean(data)
    ##    <int>      <dbl>
    ## 1      1   24.33333
    ## 2      2   26.00000
    ## 3      3   24.66667
    ## 4      4   23.66667
    ## 5      5   25.00000
    ## 6      6   23.66667
    ## 7      7   26.66667
    ## 8      8   23.33333
    ## 9      9   22.66667
    ## 10    10   24.00000
    ## # ... with 30 more rows
…
